[
	{
		"name": "replaceImagePreviewBtn",
		"locators": [
			"_._:xpath=//div[@id='replaceimagewindow']//img[@id='imgPreview']"
		]
	},
	{
		"name": "replaceImageEditBtn",
		"locators": [
			"_._:xpath=//div[@id='replaceimagewindow']//img[@id='imgEdit']"
		]
	},
	{
		"name": "replaceImageSaveBtn",
		"locators": [
			"_._:xpath=//div[@id='replaceimagewindow']//li[@class='CmdSave']"
		]
	}
]